{
  "forge_marker": 1,
  "defaults": {
    "textures": {
      "texture": "morebeautifulplates:blocks/invisible_glass"
    },
    "uvlock": true
  },
  "variants": {
    "powered=false": { "model": "morebeautifulplates:invisible_plate_up" },
    "powered=true": { "model": "morebeautifulplates:invisible_plate_down" },
    "inventory": { "model": "morebeautifulplates:invisible_plate_up" }
  }
}
